[gd_scene load_steps=4 format=3 uid="uid://bycsuqweifvs6"]

[ext_resource type="Script" path="res://src/endGame.gd" id="1_ia37q"]
[ext_resource type="FontFile" uid="uid://b5vcva71fawbm" path="res://assets/seguiemj.ttf" id="2_hobic"]

[sub_resource type="Theme" id="Theme_u8g3m"]

[node name="endGame" type="Node2D"]
script = ExtResource("1_ia37q")

[node name="ColorRect3" type="ColorRect" parent="."]
offset_left = 365.0
offset_top = 200.0
offset_right = 1136.0
offset_bottom = 568.0

[node name="ColorRect" type="ColorRect" parent="."]
offset_left = 371.0
offset_top = 205.0
offset_right = 1152.0
offset_bottom = 584.0
theme = SubResource("Theme_u8g3m")
color = Color(0.027451, 0.0784314, 0.192157, 1)

[node name="RichTextLabel" type="RichTextLabel" parent="."]
offset_left = 448.0
offset_top = 224.0
offset_right = 1054.0
offset_bottom = 310.0
theme_override_font_sizes/normal_font_size = 60
text = "It was his last dinner"

[node name="PlayTime" type="Label" parent="."]
offset_left = 600.0
offset_top = 408.0
offset_right = 960.0
offset_bottom = 450.0
theme_override_font_sizes/font_size = 30

[node name="WhiteMana" type="Label" parent="."]
offset_left = 448.0
offset_top = 320.0
offset_right = 508.0
offset_bottom = 403.0
theme_override_fonts/font = ExtResource("2_hobic")
theme_override_font_sizes/font_size = 60
text = "🌞"

[node name="BlueMana" type="Label" parent="."]
offset_left = 579.0
offset_top = 322.0
offset_right = 639.0
offset_bottom = 405.0
theme_override_fonts/font = ExtResource("2_hobic")
theme_override_font_sizes/font_size = 60
text = "💧"

[node name="BlackMana" type="Label" parent="."]
offset_left = 704.0
offset_top = 320.0
offset_right = 758.0
offset_bottom = 403.0
theme_override_fonts/font = ExtResource("2_hobic")
theme_override_font_sizes/font_size = 60
text = "☠"

[node name="RedMana" type="Label" parent="."]
offset_left = 960.0
offset_top = 320.0
offset_right = 1020.0
offset_bottom = 403.0
theme_override_fonts/font = ExtResource("2_hobic")
theme_override_font_sizes/font_size = 60
text = "🔥"

[node name="GreenMana" type="Label" parent="."]
offset_left = 832.0
offset_top = 320.0
offset_right = 892.0
offset_bottom = 403.0
theme_override_fonts/font = ExtResource("2_hobic")
theme_override_font_sizes/font_size = 60
text = "🌳"

[node name="Label" type="Label" parent="."]
offset_left = 904.0
offset_top = 536.0
offset_right = 1140.0
offset_bottom = 578.0
theme_override_font_sizes/font_size = 30
text = "( for others too )"
